  _    _ _ _                      _ 
 | |  (_) | |                    | |
 | | ___| | |__  _   _ _ __ _ __ | |
 | |/ / | | '_ \| | | | '__| '_ \| |
 |   <| | | |_) | |_| | |  | | | |_|
 |_|\_\_|_|_.__/ \__,_|_|  |_| |_(_)
====================================
  $ Operation Integration Batch
  $ v${application.version}
